Ingeniería de Características, Proyecto Integrador: Contando una historia con los datos de marginacion municipal en Sonora, 2010-2020
…
## # A tibble: 4 x 2
##   GM_2020  `n()`
##   <fct>    <int>
## 1 Muy bajo    50
## 2 Bajo        17
## 3 Medio        4
## 4 Alto         1

marginacion_municipal_sonora_2020

## # A tibble: 72 x 17
##    CVE_ENT NOM_ENT CVE_MUN NOM_MUN POB_TOT ANALF SBASC OVSDE OVSEE  OVSAE   OVPT
##    <chr>   <chr>   <chr>   <chr>     <dbl> <dbl> <dbl> <dbl> <dbl>  <dbl>  <dbl>
##  1 26      Sonora  26001   Aconchi    2563  2.69  37.1 0.780 0.858 0.702   0.312
##  2 26      Sonora  26002   Agua P~   91929  1.49  26.0 0.204 1.04  0.619   0.946
##  3 26      Sonora  26003   Alamos    24976  8.11  41.7 7.85  4.09  5.19   10.8  
##  4 26      Sonora  26004   Altar      9492  3.43  35.1 1.14  0.933 1.03    1.02 
##  5 26      Sonora  26005   Arivec~    1177  3.27  45.9 0.257 3.25  0.0855  1.88 
##  6 26      Sonora  26006   Arizpe     2788  2.81  41.5 0.683 0.611 0.611   1.62 
##  7 26      Sonora  26007   Atil        626  2.03  33.8 1.12  0.479 0.799   0.639
##  8 26      Sonora  26008   Bacadé~     979  4.22  50.5 0.613 0.102 0.102   1.74 
##  9 26      Sonora  26009   Bacano~     759  5.15  53.4 1.47  0.267 0.401   0.668
## 10 26      Sonora  26010   Bacerac    1221  3.61  43.6 2.87  1.56  0.410   0.820
## # ... with 62 more rows, and 6 more variables: VHAC <dbl>, PL.5000 <dbl>,
## #   PO2SM <dbl>, IM_2020 <dbl>, GM_2020 <fct>, IMN_2020 <dbl>
…
## # A tibble: 4 x 2
##   GM_2010  `n()`
##   <fct>    <int>
## 1 Muy bajo    41
## 2 Bajo        26
## 3 Medio        4
## 4 Alto         1

marginacion_municipal_sonora_2010

## # A tibble: 72 x 17
##    CVE_ENT NOM_ENT CVE_MUN NOM_MUN     POB_TOT ANALF SBASC  OVSDE  OVSEE   OVSAE
##    <chr>   <chr>   <chr>   <chr>         <dbl> <dbl> <dbl>  <dbl>  <dbl>   <dbl>
##  1 26      Sonora  26001   Aconchi        2637  4.03  49.8  1.87   0.304  0.0762
##  2 26      Sonora  26002   Agua Prieta   79138  2.05  38.9  0.361  2.97   0.948 
##  3 26      Sonora  26003   Alamos        25848 11.6   54.9 12.4    7.28  11.0   
##  4 26      Sonora  26004   Altar          9049  4.35  51.1  3.04   1.01   4.37  
##  5 26      Sonora  26005   Arivechi       1253  5.14  56.3  2.78  10.4    0     
##  6 26      Sonora  26006   Arizpe         3037  3.77  52.6  2.52   3.21   4.34  
##  7 26      Sonora  26007   Atil            625  2.62  46.8  0.48   0.8    1.28  
##  8 26      Sonora  26008   Bacadéhuac~    1252  4.87  59.4  2.49   0.240  0     
##  9 26      Sonora  26009   Bacanora        784  7.60  62.6  4.09   4.61   1.02  
## 10 26      Sonora  26010   Bacerac        1467  3.94  55.1  1.57   3.23   1.93  
## # ... with 62 more rows, and 7 more variables: OVPT <dbl>, VHAC <dbl>,
## #   PL.5000 <dbl>, PO2SM <dbl>, IM_2010 <dbl>, GM_2010 <fct>, IMN_2010 <dbl>
…
data2020 <- data2020_1 %>%
   select(CVE_MUN, POB_TOT, ANALF, SBASC, OVSDE, OVSEE, OVSAE, OVPT, VHAC, PL.5000, PO2SM, IM_2020, GM_2020, IMN_2020)

 total <- left_join(data2010, data2020, by = "CVE_MUN")
View(total)

A partir de este último bloque de datos, se creó el data frame total_son, que contiene únicamente los datos de marginación del estado de Sonora, por municipio, para 2010 y 2020. Esto fue posible nombrando un nuevo objeto que sólo considere los datos en los reglones que contengan el número 26 (clave entidad de Sonora) de la columna CVE_ENT del dataframe total.

total_son <- total[total$CVE_ENT == '26',]
View(total_son)
total_son

## # A tibble: 72 x 30
##    CVE_ENT NOM_ENT CVE_MUN NOM_MUN     POB_TOT.x ANALF.x SBASC.x OVSDE.x OVSEE.x
##    <chr>   <chr>   <chr>   <chr>           <dbl>   <dbl>   <dbl>   <dbl>   <dbl>
##  1 26      Sonora  26001   Aconchi          2637    4.03    49.8   1.87    0.304
##  2 26      Sonora  26002   Agua Prieta     79138    2.05    38.9   0.361   2.97 
##  3 26      Sonora  26003   Alamos          25848   11.6     54.9  12.4     7.28 
##  4 26      Sonora  26004   Altar            9049    4.35    51.1   3.04    1.01 
##  5 26      Sonora  26005   Arivechi         1253    5.14    56.3   2.78   10.4  
##  6 26      Sonora  26006   Arizpe           3037    3.77    52.6   2.52    3.21 
##  7 26      Sonora  26007   Atil              625    2.62    46.8   0.48    0.8  
##  8 26      Sonora  26008   Bacadéhuac~      1252    4.87    59.4   2.49    0.240
##  9 26      Sonora  26009   Bacanora          784    7.60    62.6   4.09    4.61 
## 10 26      Sonora  26010   Bacerac          1467    3.94    55.1   1.57    3.23 
## # ... with 62 more rows, and 21 more variables: OVSAE.x <dbl>, OVPT.x <dbl>,
## #   VHAC.x <dbl>, PL.5000.x <dbl>, PO2SM.x <dbl>, IM_2010 <dbl>, GM_2010 <chr>,
## #   IMN_2010 <dbl>, POB_TOT.y <dbl>, ANALF.y <dbl>, SBASC.y <dbl>,
## #   OVSDE.y <dbl>, OVSEE.y <dbl>, OVSAE.y <dbl>, OVPT.y <dbl>, VHAC.y <dbl>,
## #   PL.5000.y <dbl>, PO2SM.y <dbl>, IM_2020 <dbl>, GM_2020 <chr>,
## #   IMN_2020 <dbl>
…
  ungroup()

total_son

## # A tibble: 72 x 42
##    CVE_ENT NOM_ENT CVE_MUN NOM_MUN     POB_TOT.x ANALF.x SBASC.x OVSDE.x OVSEE.x
##    <chr>   <chr>   <chr>   <chr>           <dbl>   <dbl>   <dbl>   <dbl>   <dbl>
##  1 26      Sonora  26001   Aconchi          2637    4.03    49.8   1.87    0.304
##  2 26      Sonora  26002   Agua Prieta     79138    2.05    38.9   0.361   2.97 
##  3 26      Sonora  26003   Alamos          25848   11.6     54.9  12.4     7.28 
##  4 26      Sonora  26004   Altar            9049    4.35    51.1   3.04    1.01 
##  5 26      Sonora  26005   Arivechi         1253    5.14    56.3   2.78   10.4  
##  6 26      Sonora  26006   Arizpe           3037    3.77    52.6   2.52    3.21 
##  7 26      Sonora  26007   Atil              625    2.62    46.8   0.48    0.8  
##  8 26      Sonora  26008   Bacadéhuac~      1252    4.87    59.4   2.49    0.240
##  9 26      Sonora  26009   Bacanora          784    7.60    62.6   4.09    4.61 
## 10 26      Sonora  26010   Bacerac          1467    3.94    55.1   1.57    3.23 
## # ... with 62 more rows, and 33 more variables: OVSAE.x <dbl>, OVPT.x <dbl>,
## #   VHAC.x <dbl>, PL.5000.x <dbl>, PO2SM.x <dbl>, IM_2010 <dbl>, GM_2010 <chr>,
## #   IMN_2010 <dbl>, POB_TOT.y <dbl>, ANALF.y <dbl>, SBASC.y <dbl>,
## #   OVSDE.y <dbl>, OVSEE.y <dbl>, OVSAE.y <dbl>, OVPT.y <dbl>, VHAC.y <dbl>,
## #   PL.5000.y <dbl>, PO2SM.y <dbl>, IM_2020 <dbl>, GM_2020 <chr>,
## #   IMN_2020 <dbl>, IM_TC <dbl>, IMN_TC <dbl>, POB_TC <dbl>, ANALF_TC <dbl>,
## #   SBASC_TC <dbl>, OVSDE_TC <dbl>, OVSEE_TC <dbl>, OVSAE_TC <dbl>, ...
…
